2021-11-29 18:50:55,463 Process-3  d.e.f INFO     Random message #3
2021-11-29 18:50:55,478 Process-6  a.b.c CRITICAL Random message #1
2021-11-29 18:50:55,570 Process-10 a.b.c INFO     Random message #3
2021-11-29 18:50:55,615 Process-2  a.b.c CRITICAL Random message #2
