2021-11-29 18:50:55,662 Process-3  d.e.f WARNING  Random message #2
2021-11-29 18:50:55,677 Process-9  d.e.f DEBUG    Random message #3
2021-11-29 18:50:55,692 Process-5  a.b.c DEBUG    Random message #2
2021-11-29 18:50:55,708 Process-11 a.b.c INFO     Random message #3
