2021-11-29 18:50:56,480 Process-10 a.b.c INFO     Random message #3
2021-11-29 18:50:56,603 Process-6  d.e.f INFO     Random message #2
2021-11-29 18:50:56,636 Process-5  d.e.f CRITICAL Random message #1
2021-11-29 18:50:56,651 Process-9  a.b.c CRITICAL Random message #2
