2021-11-29 18:50:57,425 Process-10 d.e.f CRITICAL Random message #1
2021-11-29 18:50:57,440 Process-10 d.e.f INFO     Random message #1
2021-11-29 18:50:57,549 Process-6  a.b.c ERROR    Random message #2
2021-11-29 18:50:58,124 Process-5  d.e.f INFO     Random message #2
