2021-11-29 18:50:56,728 Process-4  a.b.c WARNING  Random message #1
2021-11-29 18:50:56,728 Process-10 a.b.c WARNING  Random message #1
2021-11-29 18:50:57,348 Process-9  a.b.c INFO     Random message #2
2021-11-29 18:50:57,363 Process-5  a.b.c WARNING  Random message #3
