2021-11-29 18:50:55,014 Process-2  a.b.c DEBUG    Random message #3
2021-11-29 18:50:55,202 Process-4  d.e.f ERROR    Random message #1
2021-11-29 18:50:55,234 Process-8  d.e.f INFO     Random message #2
2021-11-29 18:50:55,266 Process-6  a.b.c ERROR    Random message #2
