2021-11-29 18:50:55,741 Process-7  a.b.c INFO     Random message #1
2021-11-29 18:50:55,785 Process-2  d.e.f ERROR    Random message #3
2021-11-29 18:50:55,816 Process-8  a.b.c ERROR    Random message #3
2021-11-29 18:50:55,894 Process-9  a.b.c CRITICAL Random message #2
