2021-11-29 18:50:55,909 Process-8  d.e.f WARNING  Random message #3
2021-11-29 18:50:55,973 Process-4  d.e.f ERROR    Random message #1
2021-11-29 18:50:56,004 Process-7  a.b.c ERROR    Random message #2
2021-11-29 18:50:56,111 Process-6  a.b.c INFO     Random message #2
